[{
  "relation": ["delegate_permission/common.handle_all_urls"],
  "target" : { "namespace": "android_app", "package_name": "com.pcmhrestorehealth.clinic",
               "sha256_cert_fingerprints": ["DE:85:61:79:D8:32:DE:40:B9:2D:27:87:07:CE:F5:A9:2D:9C:27:5B:26:08:07:C3:DB:BF:53:88:4C:39:18:F6"] }
}]
